Library\Bee\artifacts\mvdfrm\Unity.Burst.ref.dll_F30DFA20C0DD1968.mvfrm
Library\Bee\artifacts\mvdfrm\Unity.Burst.Cecil.dll_84186467D2FFB567.mvfrm
Library\Bee\artifacts\mvdfrm\Unity.Burst.Cecil.Pdb.dll_F5A99503650C9BE7.mvfrm
Library\Bee\artifacts\mvdfrm\Unity.Burst.Cecil.Rocks.dll_5B29041A8FC1AEE7.mvfrm
Library\Bee\artifacts\mvdfrm\Unity.CompilationPipeline.Common.dll_67BAB1BC7B5D7AFB.mvfrm
Library\Bee\artifacts\mvdfrm\UnityEditor.Graphs.dll_67A9BA68ACCD971F.mvfrm
Library\Bee\artifacts\mvdfrm\UnityEditor.CoreModule.dll_8199AED0269139ED.mvfrm
Library\Bee\artifacts\mvdfrm\UnityEditor.DeviceSimulatorModule.dll_8333A8BD0FB0D264.mvfrm
Library\Bee\artifacts\mvdfrm\UnityEditor.DiagnosticsModule.dll_E6327DB3BF9FCBB2.mvfrm
Library\Bee\artifacts\mvdfrm\UnityEditor.dll_D71FC2CD58686C18.mvfrm
Library\Bee\artifacts\mvdfrm\UnityEditor.GraphViewModule.dll_E8744B222E476D49.mvfrm
Library\Bee\artifacts\mvdfrm\UnityEditor.PackageManagerUIModule.dll_A470CC7477BE9109.mvfrm
Library\Bee\artifacts\mvdfrm\UnityEditor.QuickSearchModule.dll_7141FEC11876C80B.mvfrm
Library\Bee\artifacts\mvdfrm\UnityEditor.SceneTemplateModule.dll_AABB3974248945EC.mvfrm
Library\Bee\artifacts\mvdfrm\UnityEditor.TextCoreFontEngineModule.dll_B3FDBE694F5D9CCB.mvfrm
Library\Bee\artifacts\mvdfrm\UnityEditor.TextCoreTextEngineModule.dll_FBE5F4DADEE155E9.mvfrm
Library\Bee\artifacts\mvdfrm\UnityEditor.UIBuilderModule.dll_3CFCF83EA0FFE67D.mvfrm
Library\Bee\artifacts\mvdfrm\UnityEditor.UIElementsModule.dll_25F1DDC98CE23409.mvfrm
Library\Bee\artifacts\mvdfrm\UnityEditor.UIElementsSamplesModule.dll_48A7CC4E8A7EE0F4.mvfrm
Library\Bee\artifacts\mvdfrm\UnityEditor.UIServiceModule.dll_75EF09A18A373697.mvfrm
Library\Bee\artifacts\mvdfrm\UnityEditor.UnityConnectModule.dll_C8E5CC0AA14DDF23.mvfrm
Library\Bee\artifacts\mvdfrm\UnityEngine.AccessibilityModule.dll_DD60A50B24FF6D89.mvfrm
Library\Bee\artifacts\mvdfrm\UnityEngine.AIModule.dll_C299710FAD158CA1.mvfrm
Library\Bee\artifacts\mvdfrm\UnityEngine.AndroidJNIModule.dll_A43AC69CD601A2DF.mvfrm
Library\Bee\artifacts\mvdfrm\UnityEngine.AnimationModule.dll_B6F9C74B08A441EF.mvfrm
Library\Bee\artifacts\mvdfrm\UnityEngine.ARModule.dll_7C0C36130A32EB6A.mvfrm
Library\Bee\artifacts\mvdfrm\UnityEngine.AssetBundleModule.dll_B52B31B27ADD7CFD.mvfrm
Library\Bee\artifacts\mvdfrm\UnityEngine.AudioModule.dll_4B41ED3BD2910F21.mvfrm
Library\Bee\artifacts\mvdfrm\UnityEngine.ClothModule.dll_B22A4A36ACADEE05.mvfrm
Library\Bee\artifacts\mvdfrm\UnityEngine.ClusterInputModule.dll_4882412052D5B1E9.mvfrm
Library\Bee\artifacts\mvdfrm\UnityEngine.ClusterRendererModule.dll_88E06B2E7F6BDFE8.mvfrm
Library\Bee\artifacts\mvdfrm\UnityEngine.CoreModule.dll_A4BA8222CE96A518.mvfrm
Library\Bee\artifacts\mvdfrm\UnityEngine.CrashReportingModule.dll_263F4856126F57B0.mvfrm
Library\Bee\artifacts\mvdfrm\UnityEngine.DirectorModule.dll_00760B04830D7935.mvfrm
Library\Bee\artifacts\mvdfrm\UnityEngine.dll_09C409A5B6DBF8FD.mvfrm
Library\Bee\artifacts\mvdfrm\UnityEngine.DSPGraphModule.dll_05C76C6DF56E4A56.mvfrm
Library\Bee\artifacts\mvdfrm\UnityEngine.GameCenterModule.dll_CE8810B79C4293D0.mvfrm
Library\Bee\artifacts\mvdfrm\UnityEngine.GIModule.dll_5AD5BA1D48C474BB.mvfrm
Library\Bee\artifacts\mvdfrm\UnityEngine.GridModule.dll_822B9E10E6EB3B0F.mvfrm
Library\Bee\artifacts\mvdfrm\UnityEngine.HotReloadModule.dll_38428550E3D75D71.mvfrm
Library\Bee\artifacts\mvdfrm\UnityEngine.ImageConversionModule.dll_F4D268DF019097DC.mvfrm
Library\Bee\artifacts\mvdfrm\UnityEngine.IMGUIModule.dll_83A18CA298C2A302.mvfrm
Library\Bee\artifacts\mvdfrm\UnityEngine.InputLegacyModule.dll_46704CD112CF32EE.mvfrm
Library\Bee\artifacts\mvdfrm\UnityEngine.InputModule.dll_B1B7B4EC48C933C5.mvfrm
Library\Bee\artifacts\mvdfrm\UnityEngine.JSONSerializeModule.dll_3D782E47243ACE13.mvfrm
Library\Bee\artifacts\mvdfrm\UnityEngine.LocalizationModule.dll_86CF0B72EA51A4E2.mvfrm
Library\Bee\artifacts\mvdfrm\UnityEngine.NVIDIAModule.dll_5F39701F8F7FEC84.mvfrm
Library\Bee\artifacts\mvdfrm\UnityEngine.ParticleSystemModule.dll_795191A28080E33E.mvfrm
Library\Bee\artifacts\mvdfrm\UnityEngine.PerformanceReportingModule.dll_FEBF8F7FF1A951D7.mvfrm
Library\Bee\artifacts\mvdfrm\UnityEngine.Physics2DModule.dll_039FB73BA9A13984.mvfrm
Library\Bee\artifacts\mvdfrm\UnityEngine.PhysicsModule.dll_28107098BDC95812.mvfrm
Library\Bee\artifacts\mvdfrm\UnityEngine.ProfilerModule.dll_32BC443B1C670042.mvfrm
Library\Bee\artifacts\mvdfrm\UnityEngine.RuntimeInitializeOnLoadManagerInitializerModule.dll_CBAAAD3C9C1FB24D.mvfrm
Library\Bee\artifacts\mvdfrm\UnityEngine.ScreenCaptureModule.dll_575FDBCC38A6FA75.mvfrm
Library\Bee\artifacts\mvdfrm\UnityEngine.SharedInternalsModule.dll_78E3A7B478BE932C.mvfrm
Library\Bee\artifacts\mvdfrm\UnityEngine.SpriteMaskModule.dll_B7B48347BDB2294A.mvfrm
Library\Bee\artifacts\mvdfrm\UnityEngine.SpriteShapeModule.dll_CE8C5F0D307FB507.mvfrm
Library\Bee\artifacts\mvdfrm\UnityEngine.StreamingModule.dll_6B8EB49B582BF92D.mvfrm
Library\Bee\artifacts\mvdfrm\UnityEngine.SubstanceModule.dll_4839C8E4A37EF73B.mvfrm
Library\Bee\artifacts\mvdfrm\UnityEngine.SubsystemsModule.dll_2261E9A98BFA115D.mvfrm
Library\Bee\artifacts\mvdfrm\UnityEngine.TerrainModule.dll_4256EC079387A100.mvfrm
Library\Bee\artifacts\mvdfrm\UnityEngine.TerrainPhysicsModule.dll_79CC3A7599C3DDCB.mvfrm
Library\Bee\artifacts\mvdfrm\UnityEngine.TextCoreFontEngineModule.dll_325D39BC625B5B96.mvfrm
Library\Bee\artifacts\mvdfrm\UnityEngine.TextCoreTextEngineModule.dll_7A45702DF1DF14B4.mvfrm
Library\Bee\artifacts\mvdfrm\UnityEngine.TextRenderingModule.dll_809F4DD6EFDE7A6A.mvfrm
Library\Bee\artifacts\mvdfrm\UnityEngine.TilemapModule.dll_E1535388AB448209.mvfrm
Library\Bee\artifacts\mvdfrm\UnityEngine.TLSModule.dll_CAB8BE5985DC5466.mvfrm
Library\Bee\artifacts\mvdfrm\UnityEngine.UIElementsModule.dll_26A04B118F264D54.mvfrm
Library\Bee\artifacts\mvdfrm\UnityEngine.UIElementsNativeModule.dll_EEEA8109E937012B.mvfrm
Library\Bee\artifacts\mvdfrm\UnityEngine.UIModule.dll_BE0D0F3D095C924D.mvfrm
Library\Bee\artifacts\mvdfrm\UnityEngine.UmbraModule.dll_C61699545FB7BA94.mvfrm
Library\Bee\artifacts\mvdfrm\UnityEngine.UNETModule.dll_3760CA0C1BA59A91.mvfrm
Library\Bee\artifacts\mvdfrm\UnityEngine.UnityAnalyticsCommonModule.dll_99FE4CC40B91F035.mvfrm
Library\Bee\artifacts\mvdfrm\UnityEngine.UnityAnalyticsModule.dll_98F1026C2CA8353A.mvfrm
Library\Bee\artifacts\mvdfrm\UnityEngine.UnityConnectModule.dll_B64550199BD5DFCE.mvfrm
Library\Bee\artifacts\mvdfrm\UnityEngine.UnityCurlModule.dll_EA16687C78B833DC.mvfrm
Library\Bee\artifacts\mvdfrm\UnityEngine.UnityTestProtocolModule.dll_046A8240E47A364A.mvfrm
Library\Bee\artifacts\mvdfrm\UnityEngine.UnityWebRequestAssetBundleModule.dll_432B64EA24C4B38B.mvfrm
Library\Bee\artifacts\mvdfrm\UnityEngine.UnityWebRequestAudioModule.dll_76BBE35E78141C6F.mvfrm
Library\Bee\artifacts\mvdfrm\UnityEngine.UnityWebRequestModule.dll_067170890C85325B.mvfrm
Library\Bee\artifacts\mvdfrm\UnityEngine.UnityWebRequestTextureModule.dll_77F018BA507E2624.mvfrm
Library\Bee\artifacts\mvdfrm\UnityEngine.UnityWebRequestWWWModule.dll_4507B589E19ED120.mvfrm
Library\Bee\artifacts\mvdfrm\UnityEngine.VehiclesModule.dll_78390483FD3748D0.mvfrm
Library\Bee\artifacts\mvdfrm\UnityEngine.VFXModule.dll_4B9756C85C49BDD3.mvfrm
Library\Bee\artifacts\mvdfrm\UnityEngine.VideoModule.dll_704B71A695232AC6.mvfrm
Library\Bee\artifacts\mvdfrm\UnityEngine.VirtualTexturingModule.dll_13773578C1E581B6.mvfrm
Library\Bee\artifacts\mvdfrm\UnityEngine.VRModule.dll_10DF35C2AB1717C5.mvfrm
Library\Bee\artifacts\mvdfrm\UnityEngine.WindModule.dll_1B095D4B5FCD2381.mvfrm
Library\Bee\artifacts\mvdfrm\UnityEngine.XRModule.dll_439DF8C734516523.mvfrm
Library\Bee\artifacts\mvdfrm\UnityEditor.WebGL.Extensions.dll_96F221C90E855413.mvfrm
Library\Bee\artifacts\mvdfrm\UnityEditor.WindowsStandalone.Extensions.dll_6213E862D838DB83.mvfrm